^E:\UNI YEAR 3\VIRTUAL WORLDS\VWDEMO\X64\DEBUG\CCAMERA.OBJ|E:\UNI YEAR 3\VIRTUAL WORLDS\VWDEMO\X64\DEBUG\CLIGHT.OBJ|E:\UNI YEAR 3\VIRTUAL WORLDS\VWDEMO\X64\DEBUG\CMESH.OBJ|E:\UNI YEAR 3\VIRTUAL WORLDS\VWDEMO\X64\DEBUG\CORE.OBJ|E:\UNI YEAR 3\VIRTUAL WORLDS\VWDEMO\X64\DEBUG\CSCENE.OBJ|E:\UNI YEAR 3\VIRTUAL WORLDS\VWDEMO\X64\DEBUG\CSHADER.OBJ|E:\UNI YEAR 3\VIRTUAL WORLDS\VWDEMO\X64\DEBUG\CSKYBOX.OBJ|E:\UNI YEAR 3\VIRTUAL WORLDS\VWDEMO\X64\DEBUG\CTEXTURE.OBJ|E:\UNI YEAR 3\VIRTUAL WORLDS\VWDEMO\X64\DEBUG\CTRANSFORM.OBJ|E:\UNI YEAR 3\VIRTUAL WORLDS\VWDEMO\X64\DEBUG\MAIN.OBJ|E:\UNI YEAR 3\VIRTUAL WORLDS\VWDEMO\X64\DEBUG\TEXTFILE.OBJ
E:\UNI YEAR 3\VIRTUAL WORLDS\VWDEMO\X64\DEBUG\GRAPHICSTEMPLATE.EXE
E:\UNI YEAR 3\VIRTUAL WORLDS\VWDEMO\X64\DEBUG\GRAPHICSTEMPLATE.ILK
E:\UNI YEAR 3\VIRTUAL WORLDS\VWDEMO\X64\DEBUG\GRAPHICSTEMPLATE.PDB
